[gd_resource type="DynamicFont" load_steps=2 format=2]

[sub_resource type="DynamicFontData" id=1]

font_path = "res://Font/Blenda Script.otf"

[resource]

size = 65
use_mipmaps = false
use_filter = true
font_data = SubResource( 1 )
_sections_unfolded = [ "Extra Spacing", "Font", "Settings" ]

